EESchema Schematic File Version 4
LIBS:octobox-aux-board-cache
EELAYER 26 0
EELAYER END
$Descr A3 16535 11693
encoding utf-8
Sheet 1 1
Title "OctoBox AUX board"
Date "2018-09-17"
Rev "1"
Comp "Avishay Orpaz"
Comment1 "avishorp@gmail.com"
Comment2 "https://creativecommons.org/licenses/by-sa/4.0/"
Comment3 "License: Attribution Share-Alike 4.0"
Comment4 "Released under Creative Commons"
$EndDescr
$Comp
L Connector:Screw_Terminal_01x02 J1
U 1 1 5B997AE5
P 1600 1400
F 0 "J1" H 1520 1075 50  0000 C CNN
F 1 "Screw_Terminal_01x02" H 1520 1166 50  0000 C CNN
F 2 "PhoenixContact_MCV-G_02x5.08mm_Vertical" H 1600 1400 50  0001 C CNN
F 3 "~" H 1600 1400 50  0001 C CNN
	1    1600 1400
	-1   0    0    -1  
$EndComp
Wire Wire Line
	1800 1300 2300 1300
Wire Wire Line
	2300 1300 2300 750 
Wire Wire Line
	2300 750  4800 750 
Connection ~ 2300 1300
Wire Wire Line
	2300 1300 2400 1300
Wire Wire Line
	3650 1250 3950 1250
$Comp
L Relay:G5LE-1 K1
U 1 1 5B998036
P 4250 1550
F 0 "K1" V 4817 1550 50  0000 C CNN
F 1 "G5LE-1" V 4726 1550 50  0000 C CNN
F 2 "Relays_THT:Relay_SPDT_OMRON-G5LE-1" H 4700 1500 50  0001 L CNN
F 3 "http://www.omron.com/ecb/products/pdf/en-g5le.pdf" H 4250 1150 50  0001 C CNN
	1    4250 1550
	0    -1   -1   0   
$EndComp
Wire Wire Line
	4550 1350 6250 1350
$Comp
L Connector:Screw_Terminal_01x02 J3
U 1 1 5B998249
P 6450 1350
F 0 "J3" H 6369 1025 50  0000 C CNN
F 1 "Screw_Terminal_01x02" H 6369 1116 50  0000 C CNN
F 2 "PhoenixContact_MCV-G_02x5.08mm_Vertical" H 6450 1350 50  0001 C CNN
F 3 "~" H 6450 1350 50  0001 C CNN
	1    6450 1350
	1    0    0    1   
$EndComp
Wire Wire Line
	4800 1250 6250 1250
Wire Wire Line
	4800 750  4800 1250
Wire Wire Line
	1800 1500 2350 1500
Wire Wire Line
	2350 1500 2350 950 
Wire Wire Line
	2350 950  3650 950 
Wire Wire Line
	3650 950  3650 1250
Connection ~ 2350 1500
Wire Wire Line
	2350 1500 2400 1500
Wire Notes Line
	1500 1950 2700 1950
Wire Notes Line
	2700 1950 2700 1100
Wire Notes Line
	2700 1100 3550 1100
Wire Notes Line
	3550 1100 3550 1500
Wire Notes Line
	3550 1500 7650 1500
Wire Wire Line
	3100 1500 3100 1850
$Comp
L power:GND #PWR06
U 1 1 5B9987BD
P 3100 1850
F 0 "#PWR06" H 3100 1600 50  0001 C CNN
F 1 "GND" H 3105 1677 50  0000 C CNN
F 2 "" H 3100 1850 50  0001 C CNN
F 3 "" H 3100 1850 50  0001 C CNN
	1    3100 1850
	1    0    0    -1  
$EndComp
Wire Wire Line
	3100 1300 3400 1300
$Comp
L power:+5V #PWR07
U 1 1 5B998942
P 3400 1850
F 0 "#PWR07" H 3400 1700 50  0001 C CNN
F 1 "+5V" H 3415 2023 50  0000 C CNN
F 2 "" H 3400 1850 50  0001 C CNN
F 3 "" H 3400 1850 50  0001 C CNN
	1    3400 1850
	-1   0    0    1   
$EndComp
$Comp
L power:+5V #PWR020
U 1 1 5B998996
P 8100 3200
F 0 "#PWR020" H 8100 3050 50  0001 C CNN
F 1 "+5V" H 8115 3373 50  0000 C CNN
F 2 "" H 8100 3200 50  0001 C CNN
F 3 "" H 8100 3200 50  0001 C CNN
	1    8100 3200
	1    0    0    -1  
$EndComp
Wire Wire Line
	4850 1750 4700 1750
$Comp
L power:GND #PWR014
U 1 1 5B998ED6
P 10700 4100
F 0 "#PWR014" H 10700 3850 50  0001 C CNN
F 1 "GND" H 10705 3927 50  0000 C CNN
F 2 "" H 10700 4100 50  0001 C CNN
F 3 "" H 10700 4100 50  0001 C CNN
	1    10700 4100
	1    0    0    -1  
$EndComp
Text Notes 1550 1900 0    55   ~ 11
HV Part
Text Notes 1550 2050 0    55   ~ 11
LV Part
$Comp
L power:+5V #PWR03
U 1 1 5B999175
P 5800 3050
F 0 "#PWR03" H 5800 2900 50  0001 C CNN
F 1 "+5V" H 5815 3223 50  0000 C CNN
F 2 "" H 5800 3050 50  0001 C CNN
F 3 "" H 5800 3050 50  0001 C CNN
	1    5800 3050
	1    0    0    -1  
$EndComp
$Comp
L power:GND #PWR04
U 1 1 5B9995BC
P 5800 4500
F 0 "#PWR04" H 5800 4250 50  0001 C CNN
F 1 "GND" H 5805 4327 50  0000 C CNN
F 2 "" H 5800 4500 50  0001 C CNN
F 3 "" H 5800 4500 50  0001 C CNN
	1    5800 4500
	1    0    0    -1  
$EndComp
$Comp
L Device:R R16
U 1 1 5B999605
P 7800 3500
F 0 "R16" H 7870 3546 50  0000 L CNN
F 1 "1M" H 7870 3455 50  0000 L CNN
F 2 "R_0603" V 7730 3500 50  0001 C CNN
F 3 "~" H 7800 3500 50  0001 C CNN
	1    7800 3500
	1    0    0    -1  
$EndComp
$Comp
L Device:R R11
U 1 1 5B99A93A
P 10150 3650
F 0 "R11" V 9943 3650 50  0000 C CNN
F 1 "220" V 10034 3650 50  0000 C CNN
F 2 "R_0603" V 10080 3650 50  0001 C CNN
F 3 "~" H 10150 3650 50  0001 C CNN
	1    10150 3650
	0    1    1    0   
$EndComp
$Comp
L Device:Q_NMOS_GSD Q7
U 1 1 5B99CEE4
P 10600 3650
F 0 "Q7" H 10805 3696 50  0000 L CNN
F 1 "SI2318" H 10805 3605 50  0000 L CNN
F 2 "SOT-23" H 10800 3750 50  0001 C CNN
F 3 "~" H 10600 3650 50  0001 C CNN
	1    10600 3650
	1    0    0    -1  
$EndComp
$Comp
L Device:R R14
U 1 1 5B9A1741
P 3750 3700
F 0 "R14" V 3500 3600 50  0000 C CNN
F 1 "4.7K" V 3600 3600 50  0000 C CNN
F 2 "R_0603" V 3680 3700 50  0001 C CNN
F 3 "~" H 3750 3700 50  0001 C CNN
	1    3750 3700
	0    1    1    0   
$EndComp
$Comp
L Device:C C4
U 1 1 5B9A1749
P 4950 4250
F 0 "C4" H 5065 4296 50  0000 L CNN
F 1 "NA" H 5065 4205 50  0000 L CNN
F 2 "C_0603" H 4988 4100 50  0001 C CNN
F 3 "~" H 4950 4250 50  0001 C CNN
	1    4950 4250
	1    0    0    -1  
$EndComp
$Comp
L Device:C C1
U 1 1 5B9A7D67
P 6550 3400
F 0 "C1" H 6665 3446 50  0000 L CNN
F 1 "1uF" H 6665 3355 50  0000 L CNN
F 2 "C_0603" H 6588 3250 50  0001 C CNN
F 3 "~" H 6550 3400 50  0001 C CNN
	1    6550 3400
	1    0    0    -1  
$EndComp
$Comp
L Device:R R13
U 1 1 5B9B3EE8
P 4200 3500
F 0 "R13" H 4350 3350 50  0000 C CNN
F 1 "470K" H 4350 3450 50  0000 C CNN
F 2 "R_0603" V 4130 3500 50  0001 C CNN
F 3 "~" H 4200 3500 50  0001 C CNN
	1    4200 3500
	-1   0    0    1   
$EndComp
Wire Wire Line
	2750 4000 2600 4000
Text Label 2300 4000 0    50   ~ 0
DROP_IN_2H
$Comp
L power:GND #PWR01
U 1 1 5B9BCDB1
P 3050 4450
F 0 "#PWR01" H 3050 4200 50  0001 C CNN
F 1 "GND" H 3055 4277 50  0000 C CNN
F 2 "" H 3050 4450 50  0001 C CNN
F 3 "" H 3050 4450 50  0001 C CNN
	1    3050 4450
	1    0    0    -1  
$EndComp
Wire Wire Line
	3050 4450 3050 4350
$Comp
L Device:R R1
U 1 1 5B9BCDB8
P 2600 4200
F 0 "R1" H 2670 4246 50  0000 L CNN
F 1 "1M" H 2670 4155 50  0000 L CNN
F 2 "R_0603" V 2530 4200 50  0001 C CNN
F 3 "~" H 2600 4200 50  0001 C CNN
	1    2600 4200
	1    0    0    -1  
$EndComp
Wire Wire Line
	2600 4350 3050 4350
Connection ~ 3050 4350
Wire Wire Line
	3050 4350 3050 4200
Wire Wire Line
	2600 4050 2600 4000
Connection ~ 2600 4000
Wire Wire Line
	2600 4000 2300 4000
$Comp
L Device:Q_NMOS_GSD Q1
U 1 1 5B9BCDC4
P 2950 4000
F 0 "Q1" H 3155 4046 50  0000 L CNN
F 1 "SI2318" H 3155 3955 50  0000 L CNN
F 2 "SOT-23" H 3150 4100 50  0001 C CNN
F 3 "~" H 2950 4000 50  0001 C CNN
	1    2950 4000
	1    0    0    -1  
$EndComp
Wire Wire Line
	1550 3950 1400 3950
Text Label 1100 3950 0    50   ~ 0
DROP_IN_1H
$Comp
L power:GND #PWR02
U 1 1 5B9BE867
P 1850 4400
F 0 "#PWR02" H 1850 4150 50  0001 C CNN
F 1 "GND" H 1855 4227 50  0000 C CNN
F 2 "" H 1850 4400 50  0001 C CNN
F 3 "" H 1850 4400 50  0001 C CNN
	1    1850 4400
	1    0    0    -1  
$EndComp
Wire Wire Line
	1850 4400 1850 4300
$Comp
L Device:R R2
U 1 1 5B9BE86E
P 1400 4150
F 0 "R2" H 1470 4196 50  0000 L CNN
F 1 "1M" H 1470 4105 50  0000 L CNN
F 2 "R_0603" V 1330 4150 50  0001 C CNN
F 3 "~" H 1400 4150 50  0001 C CNN
	1    1400 4150
	1    0    0    -1  
$EndComp
Wire Wire Line
	1400 4300 1850 4300
Connection ~ 1850 4300
Wire Wire Line
	1850 4300 1850 4150
Wire Wire Line
	1400 4000 1400 3950
Connection ~ 1400 3950
Wire Wire Line
	1400 3950 1100 3950
$Comp
L Device:Q_NMOS_GSD Q2
U 1 1 5B9BE87A
P 1750 3950
F 0 "Q2" H 1955 3996 50  0000 L CNN
F 1 "SI2318" H 1955 3905 50  0000 L CNN
F 2 "SOT-23" H 1950 4050 50  0001 C CNN
F 3 "~" H 1750 3950 50  0001 C CNN
	1    1750 3950
	1    0    0    -1  
$EndComp
Wire Wire Line
	3050 3800 3050 3700
Wire Wire Line
	1850 3750 1850 3700
Text Label 3250 3700 0    50   ~ 0
DROP
Text Label 2000 3700 0    50   ~ 0
DROP
$Comp
L Device:R R15
U 1 1 5B9EB2EB
P 7550 3700
F 0 "R15" V 7343 3700 50  0000 C CNN
F 1 "220" V 7434 3700 50  0000 C CNN
F 2 "R_0603" V 7480 3700 50  0001 C CNN
F 3 "~" H 7550 3700 50  0001 C CNN
	1    7550 3700
	0    1    1    0   
$EndComp
Wire Wire Line
	10700 3850 10700 4050
Wire Wire Line
	10300 3650 10350 3650
$Comp
L Device:R R12
U 1 1 5BA0F870
P 10350 3900
F 0 "R12" H 10420 3946 50  0000 L CNN
F 1 "1M" H 10420 3855 50  0000 L CNN
F 2 "R_0603" V 10280 3900 50  0001 C CNN
F 3 "~" H 10350 3900 50  0001 C CNN
	1    10350 3900
	1    0    0    -1  
$EndComp
Wire Wire Line
	10350 4050 10700 4050
Connection ~ 10700 4050
Wire Wire Line
	10700 4050 10700 4100
Wire Wire Line
	10350 3750 10350 3650
Connection ~ 10350 3650
Wire Wire Line
	10350 3650 10400 3650
Wire Wire Line
	10700 3450 10700 3300
Wire Wire Line
	10700 3300 10250 3300
Text Label 10300 3300 0    50   ~ 0
RELAY-
$Comp
L Device:Q_PMOS_GSD Q8
U 1 1 5BA1C86B
P 8000 3700
F 0 "Q8" H 8206 3654 50  0000 L CNN
F 1 "SI2319" H 8206 3745 50  0000 L CNN
F 2 "SOT-23" H 8200 3800 50  0001 C CNN
F 3 "~" H 8000 3700 50  0001 C CNN
	1    8000 3700
	1    0    0    1   
$EndComp
Wire Wire Line
	7800 3700 7700 3700
Wire Wire Line
	8100 3500 8100 3350
Wire Wire Line
	7800 3350 8100 3350
Connection ~ 8100 3350
Wire Wire Line
	8100 3200 8100 3350
Wire Wire Line
	7800 3650 7800 3700
Connection ~ 7800 3700
Wire Wire Line
	8100 3900 8100 4100
Wire Wire Line
	8100 4100 7600 4100
Text Label 7650 4100 0    50   ~ 0
RELAY+
Text Label 4550 1750 0    50   ~ 0
RELAY+
Wire Wire Line
	3600 1750 3800 1750
Text Label 3650 1750 0    50   ~ 0
RELAY-
$Comp
L Device:R R21
U 1 1 5BA3BFFA
P 13650 2700
F 0 "R21" H 13720 2746 50  0000 L CNN
F 1 "1M" H 13720 2655 50  0000 L CNN
F 2 "R_0603" V 13580 2700 50  0001 C CNN
F 3 "~" H 13650 2700 50  0001 C CNN
	1    13650 2700
	1    0    0    -1  
$EndComp
$Comp
L Device:R R18
U 1 1 5BA3C000
P 13400 2900
F 0 "R18" V 13193 2900 50  0000 C CNN
F 1 "220" V 13284 2900 50  0000 C CNN
F 2 "R_0603" V 13330 2900 50  0001 C CNN
F 3 "~" H 13400 2900 50  0001 C CNN
	1    13400 2900
	0    1    1    0   
$EndComp
$Comp
L Device:Q_PMOS_GSD Q10
U 1 1 5BA3C006
P 13850 2900
F 0 "Q10" H 14056 2854 50  0000 L CNN
F 1 "SI2319" H 14056 2945 50  0000 L CNN
F 2 "SOT-23" H 14050 3000 50  0001 C CNN
F 3 "~" H 13850 2900 50  0001 C CNN
	1    13850 2900
	1    0    0    1   
$EndComp
Wire Wire Line
	13650 2900 13550 2900
Wire Wire Line
	13950 2700 13950 2550
Wire Wire Line
	13650 2550 13950 2550
Connection ~ 13950 2550
Wire Wire Line
	13950 2400 13950 2550
Wire Wire Line
	13650 2850 13650 2900
Connection ~ 13650 2900
Wire Wire Line
	13950 3100 13950 3300
Wire Wire Line
	13250 2900 12900 2900
$Comp
L Device:R R25
U 1 1 5BA4BA73
P 14200 3300
F 0 "R25" V 13993 3300 50  0000 C CNN
F 1 "220" V 14084 3300 50  0000 C CNN
F 2 "R_0603" V 14130 3300 50  0001 C CNN
F 3 "~" H 14200 3300 50  0001 C CNN
	1    14200 3300
	0    1    1    0   
$EndComp
Wire Wire Line
	14050 3300 13950 3300
Wire Wire Line
	14350 3300 14600 3300
Text Label 14350 3300 0    50   ~ 0
LED_G_OUT
Text Label 12900 2900 0    50   ~ 0
LED_G
$Comp
L Device:R R20
U 1 1 5BA53D9C
P 13650 1500
F 0 "R20" H 13720 1546 50  0000 L CNN
F 1 "1M" H 13720 1455 50  0000 L CNN
F 2 "R_0603" V 13580 1500 50  0001 C CNN
F 3 "~" H 13650 1500 50  0001 C CNN
	1    13650 1500
	1    0    0    -1  
$EndComp
$Comp
L Device:R R17
U 1 1 5BA53DA2
P 13400 1700
F 0 "R17" V 13193 1700 50  0000 C CNN
F 1 "220" V 13284 1700 50  0000 C CNN
F 2 "R_0603" V 13330 1700 50  0001 C CNN
F 3 "~" H 13400 1700 50  0001 C CNN
	1    13400 1700
	0    1    1    0   
$EndComp
$Comp
L Device:Q_PMOS_GSD Q9
U 1 1 5BA53DA8
P 13850 1700
F 0 "Q9" H 14056 1654 50  0000 L CNN
F 1 "SI2319" H 14056 1745 50  0000 L CNN
F 2 "SOT-23" H 14050 1800 50  0001 C CNN
F 3 "~" H 13850 1700 50  0001 C CNN
	1    13850 1700
	1    0    0    1   
$EndComp
Wire Wire Line
	13650 1700 13550 1700
Wire Wire Line
	13950 1500 13950 1350
Wire Wire Line
	13650 1350 13950 1350
Connection ~ 13950 1350
Wire Wire Line
	13950 1200 13950 1350
Wire Wire Line
	13650 1650 13650 1700
Connection ~ 13650 1700
Wire Wire Line
	13950 1900 13950 2100
Wire Wire Line
	13250 1700 12900 1700
$Comp
L Device:R R24
U 1 1 5BA53DB7
P 14200 2100
F 0 "R24" V 13993 2100 50  0000 C CNN
F 1 "220" V 14084 2100 50  0000 C CNN
F 2 "R_0603" V 14130 2100 50  0001 C CNN
F 3 "~" H 14200 2100 50  0001 C CNN
	1    14200 2100
	0    1    1    0   
$EndComp
Wire Wire Line
	14050 2100 13950 2100
Wire Wire Line
	14350 2100 14600 2100
Text Label 14350 2100 0    50   ~ 0
LED_R_OUT
Text Label 12900 1700 0    50   ~ 0
LED_R
$Comp
L Device:R R22
U 1 1 5BA5CE20
P 13650 3900
F 0 "R22" H 13720 3946 50  0000 L CNN
F 1 "1M" H 13720 3855 50  0000 L CNN
F 2 "R_0603" V 13580 3900 50  0001 C CNN
F 3 "~" H 13650 3900 50  0001 C CNN
	1    13650 3900
	1    0    0    -1  
$EndComp
$Comp
L Device:R R19
U 1 1 5BA5CE26
P 13400 4100
F 0 "R19" V 13193 4100 50  0000 C CNN
F 1 "220" V 13284 4100 50  0000 C CNN
F 2 "R_0603" V 13330 4100 50  0001 C CNN
F 3 "~" H 13400 4100 50  0001 C CNN
	1    13400 4100
	0    1    1    0   
$EndComp
$Comp
L Device:Q_PMOS_GSD Q11
U 1 1 5BA5CE2C
P 13850 4100
F 0 "Q11" H 14056 4054 50  0000 L CNN
F 1 "SI2319" H 14056 4145 50  0000 L CNN
F 2 "SOT-23" H 14050 4200 50  0001 C CNN
F 3 "~" H 13850 4100 50  0001 C CNN
	1    13850 4100
	1    0    0    1   
$EndComp
Wire Wire Line
	13650 4100 13550 4100
Wire Wire Line
	13950 3900 13950 3750
Wire Wire Line
	13650 3750 13950 3750
Connection ~ 13950 3750
Wire Wire Line
	13950 3600 13950 3750
Wire Wire Line
	13650 4050 13650 4100
Connection ~ 13650 4100
Wire Wire Line
	13950 4300 13950 4500
Wire Wire Line
	13250 4100 12900 4100
$Comp
L Device:R R26
U 1 1 5BA5CE3B
P 14200 4500
F 0 "R26" V 13993 4500 50  0000 C CNN
F 1 "220" V 14084 4500 50  0000 C CNN
F 2 "R_0603" V 14130 4500 50  0001 C CNN
F 3 "~" H 14200 4500 50  0001 C CNN
	1    14200 4500
	0    1    1    0   
$EndComp
Wire Wire Line
	14050 4500 13950 4500
Wire Wire Line
	14350 4500 14600 4500
Text Label 14350 4500 0    50   ~ 0
LED_B_OUT
Text Label 12900 4100 0    50   ~ 0
LED_B
$Comp
L Device:R R23
U 1 1 5BA61F26
P 13850 4850
F 0 "R23" V 13643 4850 50  0000 C CNN
F 1 "47K" V 13734 4850 50  0000 C CNN
F 2 "R_0603" V 13780 4850 50  0001 C CNN
F 3 "~" H 13850 4850 50  0001 C CNN
	1    13850 4850
	0    1    1    0   
$EndComp
Wire Wire Line
	13700 4850 13550 4850
Wire Wire Line
	13550 4850 13550 4600
Wire Wire Line
	14000 4850 14100 4850
Text Label 14200 4850 0    50   ~ 0
BUTTON
Wire Wire Line
	3500 9300 3400 9300
Wire Wire Line
	3400 9300 3400 9250
Wire Wire Line
	3500 9400 3400 9400
Wire Wire Line
	3400 9400 3400 9450
$Comp
L power:GND #PWR019
U 1 1 5BA77025
P 3400 9450
F 0 "#PWR019" H 3400 9200 50  0001 C CNN
F 1 "GND" H 3405 9277 50  0000 C CNN
F 2 "" H 3400 9450 50  0001 C CNN
F 3 "" H 3400 9450 50  0001 C CNN
	1    3400 9450
	1    0    0    -1  
$EndComp
$Comp
L power:+5V #PWR018
U 1 1 5BA77090
P 3400 9250
F 0 "#PWR018" H 3400 9100 50  0001 C CNN
F 1 "+5V" H 3415 9423 50  0000 C CNN
F 2 "" H 3400 9250 50  0001 C CNN
F 3 "" H 3400 9250 50  0001 C CNN
	1    3400 9250
	1    0    0    -1  
$EndComp
$Comp
L Connector_Generic:Conn_01x02 J4
U 1 1 5BA77135
P 3700 9300
F 0 "J4" H 3780 9292 50  0000 L CNN
F 1 "Conn_01x02" H 3780 9201 50  0000 L CNN
F 2 "PinHeader_1x02_P2.54mm_Vertical" H 3700 9300 50  0001 C CNN
F 3 "~" H 3700 9300 50  0001 C CNN
	1    3700 9300
	1    0    0    -1  
$EndComp
Text Notes 3650 9700 0    50   ~ 0
Power\nOut
$Comp
L Connector_Generic:Conn_02x03_Counter_Clockwise J5
U 1 1 5BA773C0
P 5000 9350
F 0 "J5" H 5050 9667 50  0000 C CNN
F 1 "Conn_02x03_Counter_Clockwise" H 5050 9576 50  0000 C CNN
F 2 "Pin_Header_Straight_2x03_Pitch2.54mm" H 5000 9350 50  0001 C CNN
F 3 "~" H 5000 9350 50  0001 C CNN
	1    5000 9350
	1    0    0    -1  
$EndComp
Wire Wire Line
	5300 9250 5700 9250
Text Label 4450 9250 0    50   ~ 0
LED_R_OUT
Text Label 4450 9350 0    50   ~ 0
LED_G_OUT
Text Label 4450 9450 0    50   ~ 0
LED_B_OUT
Text Label 5350 9250 0    50   ~ 0
BUTTON
Wire Wire Line
	5300 9350 5400 9350
Wire Wire Line
	5400 9350 5400 9450
Wire Wire Line
	5300 9450 5400 9450
Connection ~ 5400 9450
Wire Wire Line
	5400 9450 5400 9600
$Comp
L power:GND #PWR021
U 1 1 5BAB0FDA
P 5400 9600
F 0 "#PWR021" H 5400 9350 50  0001 C CNN
F 1 "GND" H 5405 9427 50  0000 C CNN
F 2 "" H 5400 9600 50  0001 C CNN
F 3 "" H 5400 9600 50  0001 C CNN
	1    5400 9600
	1    0    0    -1  
$EndComp
Wire Wire Line
	4450 9250 4800 9250
Wire Wire Line
	4450 9350 4800 9350
Wire Wire Line
	4450 9450 4800 9450
$Comp
L Connector_Generic:Conn_01x06 J6
U 1 1 5BAC9723
P 6950 9350
F 0 "J6" H 7030 9342 50  0000 L CNN
F 1 "Conn_01x06" H 7030 9251 50  0000 L CNN
F 2 "Pin_Header_Straight_1x06_Pitch2.54mm" H 6950 9350 50  0001 C CNN
F 3 "~" H 6950 9350 50  0001 C CNN
	1    6950 9350
	1    0    0    -1  
$EndComp
Wire Wire Line
	6750 9150 6650 9150
Wire Wire Line
	6650 9150 6650 9050
Wire Wire Line
	6750 9650 6650 9650
Wire Wire Line
	6650 9650 6650 9950
$Comp
L power:+5V #PWR023
U 1 1 5BAD5E45
P 6650 9050
F 0 "#PWR023" H 6650 8900 50  0001 C CNN
F 1 "+5V" H 6665 9223 50  0000 C CNN
F 2 "" H 6650 9050 50  0001 C CNN
F 3 "" H 6650 9050 50  0001 C CNN
	1    6650 9050
	1    0    0    -1  
$EndComp
$Comp
L power:GND #PWR024
U 1 1 5BAEFB82
P 6650 10000
F 0 "#PWR024" H 6650 9750 50  0001 C CNN
F 1 "GND" H 6655 9827 50  0000 C CNN
F 2 "" H 6650 10000 50  0001 C CNN
F 3 "" H 6650 10000 50  0001 C CNN
	1    6650 10000
	1    0    0    -1  
$EndComp
Text Label 6250 9250 0    50   ~ 0
DROP_IN_1H
Wire Wire Line
	6250 9250 6750 9250
Wire Wire Line
	6250 9350 6750 9350
Text Label 6250 9350 0    50   ~ 0
DROP_IN_2H
Text Label 6250 9450 0    50   ~ 0
DROP
Text Label 6250 9550 0    50   ~ 0
DROP
$Comp
L pspice:DIODE D1
U 1 1 5BB254B4
P 4300 2300
F 0 "D1" H 4300 2565 50  0000 C CNN
F 1 "1N4148WS" H 4300 2474 50  0000 C CNN
F 2 "D_SOD-323" H 4300 2300 50  0001 C CNN
F 3 "" H 4300 2300 50  0001 C CNN
	1    4300 2300
	1    0    0    -1  
$EndComp
Wire Wire Line
	4500 2300 4700 2300
Wire Wire Line
	4700 2300 4700 1750
Connection ~ 4700 1750
Wire Wire Line
	4700 1750 4550 1750
Wire Wire Line
	4100 2300 3800 2300
Wire Wire Line
	3800 2300 3800 1750
Connection ~ 3800 1750
Wire Wire Line
	3800 1750 3950 1750
Wire Notes Line
	14800 850  14800 5300
Wire Notes Line
	14800 5300 12650 5300
Wire Notes Line
	12650 5300 12650 850 
Wire Notes Line
	12650 850  14800 850 
$Comp
L Connector_Generic:Conn_02x04_Counter_Clockwise J2
U 1 1 5BB4A128
P 2300 9300
F 0 "J2" H 2350 9617 50  0000 C CNN
F 1 "Conn_02x04_Counter_Clockwise" H 2350 9526 50  0000 C CNN
F 2 "Pin_Header_Straight_2x04_Pitch2.54mm" H 2300 9300 50  0001 C CNN
F 3 "~" H 2300 9300 50  0001 C CNN
	1    2300 9300
	1    0    0    -1  
$EndComp
Wire Wire Line
	2100 9200 1650 9200
Wire Wire Line
	2600 9200 3050 9200
Wire Wire Line
	2600 9300 3050 9300
Wire Wire Line
	2600 9400 3050 9400
Wire Wire Line
	2600 9500 3050 9500
Text Label 1700 9200 0    50   ~ 0
RELAY_CTRL
$Comp
L Device:C C3
U 1 1 5BB80A51
P 4500 3450
F 0 "C3" H 4615 3496 50  0000 L CNN
F 1 "1uF" H 4615 3405 50  0000 L CNN
F 2 "C_0603" H 4538 3300 50  0001 C CNN
F 3 "~" H 4500 3450 50  0001 C CNN
	1    4500 3450
	1    0    0    -1  
$EndComp
Text Label 2700 9200 0    50   ~ 0
LED_R
Text Label 2700 9300 0    50   ~ 0
LED_B
Text Label 2700 9400 0    50   ~ 0
LED_G
Text Label 2700 9500 0    50   ~ 0
BUTTON
Text Notes 2200 9700 0    50   ~ 0
Controller
Text Notes 4950 9650 0    50   ~ 0
Button
Text Notes 6850 9900 0    50   ~ 0
Safety\nSensors
Text Notes 12700 5250 0    55   ~ 11
Button Interface
Text Notes 1150 2450 0    55   ~ 11
Power Switch
Wire Notes Line
	1050 550  7650 550 
Wire Notes Line
	7650 550  7650 2550
Wire Notes Line
	7650 2550 1050 2550
Wire Notes Line
	1050 2550 1050 550 
$Comp
L Device:C C5
U 1 1 5BBC6B42
P 14100 5000
F 0 "C5" H 14215 5046 50  0000 L CNN
F 1 "10nF" H 14215 4955 50  0000 L CNN
F 2 "C_0603" H 14138 4850 50  0001 C CNN
F 3 "~" H 14100 5000 50  0001 C CNN
	1    14100 5000
	1    0    0    -1  
$EndComp
Connection ~ 14100 4850
Wire Wire Line
	14100 4850 14600 4850
$Comp
L power:GND #PWR028
U 1 1 5BBC6C0A
P 14100 5150
F 0 "#PWR028" H 14100 4900 50  0001 C CNN
F 1 "GND" H 14105 4977 50  0000 C CNN
F 2 "" H 14100 5150 50  0001 C CNN
F 3 "" H 14100 5150 50  0001 C CNN
	1    14100 5150
	1    0    0    -1  
$EndComp
$Comp
L power:+5V #PWR031
U 1 1 5BBF9642
P 5000 6050
F 0 "#PWR031" H 5000 5900 50  0001 C CNN
F 1 "+5V" H 5015 6223 50  0000 C CNN
F 2 "" H 5000 6050 50  0001 C CNN
F 3 "" H 5000 6050 50  0001 C CNN
	1    5000 6050
	1    0    0    -1  
$EndComp
$Comp
L Device:R R30
U 1 1 5BBF9648
P 4700 6350
F 0 "R30" H 4770 6396 50  0000 L CNN
F 1 "1M" H 4770 6305 50  0000 L CNN
F 2 "R_0603" V 4630 6350 50  0001 C CNN
F 3 "~" H 4700 6350 50  0001 C CNN
	1    4700 6350
	1    0    0    -1  
$EndComp
$Comp
L Device:R R29
U 1 1 5BBF964E
P 4300 6550
F 0 "R29" V 4093 6550 50  0000 C CNN
F 1 "220" V 4184 6550 50  0000 C CNN
F 2 "R_0603" V 4230 6550 50  0001 C CNN
F 3 "~" H 4300 6550 50  0001 C CNN
	1    4300 6550
	0    1    1    0   
$EndComp
Wire Wire Line
	4000 6550 4150 6550
$Comp
L Device:Q_PMOS_GSD Q12
U 1 1 5BBF9655
P 4900 6550
F 0 "Q12" H 5105 6504 50  0000 L CNN
F 1 "SI2319" H 5105 6595 50  0000 L CNN
F 2 "SOT-23" H 5100 6650 50  0001 C CNN
F 3 "~" H 4900 6550 50  0001 C CNN
	1    4900 6550
	1    0    0    1   
$EndComp
Wire Wire Line
	5000 6350 5000 6200
Wire Wire Line
	4700 6200 5000 6200
Connection ~ 5000 6200
Wire Wire Line
	5000 6050 5000 6100
Wire Wire Line
	4700 6500 4700 6550
Connection ~ 4700 6550
Wire Wire Line
	5000 6750 5000 6950
Wire Wire Line
	5000 6950 4500 6950
Text Label 4550 6950 0    50   ~ 0
FAN_POWER
Wire Wire Line
	4450 6550 4550 6550
Wire Wire Line
	4550 6550 4550 5850
Wire Wire Line
	4550 5850 4050 5850
Connection ~ 4550 6550
Wire Wire Line
	4550 6550 4700 6550
$Comp
L Device:R R28
U 1 1 5BC2187A
P 3900 5850
F 0 "R28" V 3693 5850 50  0000 C CNN
F 1 "0" V 3784 5850 50  0000 C CNN
F 2 "R_0603" V 3830 5850 50  0001 C CNN
F 3 "~" H 3900 5850 50  0001 C CNN
	1    3900 5850
	0    1    1    0   
$EndComp
Wire Wire Line
	3750 5850 3250 5850
Text Label 3250 5850 0    50   ~ 0
FAN_FORCE
Wire Wire Line
	5000 6100 3000 6100
Wire Wire Line
	3000 6100 3000 6400
Wire Wire Line
	3000 6400 3100 6400
Connection ~ 5000 6100
Wire Wire Line
	5000 6100 5000 6200
Wire Wire Line
	3100 6500 3000 6500
Wire Wire Line
	3000 6500 3000 6400
Connection ~ 3000 6400
Wire Wire Line
	5000 6100 5700 6100
Wire Wire Line
	5700 6100 5700 6400
Wire Wire Line
	5700 6400 5900 6400
Wire Wire Line
	5700 6400 5700 6500
Wire Wire Line
	5700 6500 5900 6500
Connection ~ 5700 6400
Wire Wire Line
	5900 6700 5800 6700
Wire Wire Line
	5800 6700 5800 7200
Wire Wire Line
	5800 7200 5550 7200
Wire Wire Line
	3050 7200 3050 6700
Wire Wire Line
	3050 6700 3100 6700
Text Label 7200 6550 0    50   ~ 0
DROP
Wire Wire Line
	3100 6600 2800 6600
Wire Wire Line
	2800 6600 2800 6750
$Comp
L Device:R R27
U 1 1 5BC7BA73
P 2800 6900
F 0 "R27" H 3000 6850 50  0000 C CNN
F 1 "56.2K" H 3000 6950 50  0000 C CNN
F 2 "R_0603" V 2730 6900 50  0001 C CNN
F 3 "~" H 2800 6900 50  0001 C CNN
	1    2800 6900
	-1   0    0    1   
$EndComp
Wire Wire Line
	2800 7050 2800 7200
Wire Wire Line
	2800 7200 3050 7200
Connection ~ 3050 7200
$Comp
L Device:R R31
U 1 1 5BC8831A
P 5550 6900
F 0 "R31" H 5750 6850 50  0000 C CNN
F 1 "34.2K" H 5750 6950 50  0000 C CNN
F 2 "R_0603" V 5480 6900 50  0001 C CNN
F 3 "~" H 5550 6900 50  0001 C CNN
	1    5550 6900
	-1   0    0    1   
$EndComp
Wire Wire Line
	5550 6750 5550 6600
Wire Wire Line
	5550 6600 5900 6600
Wire Wire Line
	5550 7050 5550 7200
Connection ~ 5550 7200
Wire Wire Line
	5550 7200 4450 7200
Wire Wire Line
	4450 7200 4450 7400
Connection ~ 4450 7200
Wire Wire Line
	4450 7200 3050 7200
$Comp
L power:GND #PWR030
U 1 1 5BCAE206
P 4450 7400
F 0 "#PWR030" H 4450 7150 50  0001 C CNN
F 1 "GND" H 4455 7227 50  0000 C CNN
F 2 "" H 4450 7400 50  0001 C CNN
F 3 "" H 4450 7400 50  0001 C CNN
	1    4450 7400
	1    0    0    -1  
$EndComp
Text Notes 3250 7000 0    50   ~ 0
Fan Control:\nTrip Temp = 40C
Text Notes 6050 7000 0    50   ~ 0
Safety Power Drop:\nTrip Temp = 70C
Wire Wire Line
	2100 9500 1650 9500
Text Label 1700 9500 0    50   ~ 0
FAN_FORCE
Wire Wire Line
	8050 9450 7950 9450
Wire Wire Line
	7950 9450 7950 9500
$Comp
L power:GND #PWR029
U 1 1 5BCBBAFD
P 7950 9500
F 0 "#PWR029" H 7950 9250 50  0001 C CNN
F 1 "GND" H 7955 9327 50  0000 C CNN
F 2 "" H 7950 9500 50  0001 C CNN
F 3 "" H 7950 9500 50  0001 C CNN
	1    7950 9500
	1    0    0    -1  
$EndComp
$Comp
L Connector_Generic:Conn_01x02 J7
U 1 1 5BCBBB09
P 8250 9350
F 0 "J7" H 8329 9342 50  0000 L CNN
F 1 "XH-2A" H 8329 9251 50  0000 L CNN
F 2 "JST_XH_B02B-XH-A_02x2.50mm_Straight" H 8250 9350 50  0001 C CNN
F 3 "~" H 8250 9350 50  0001 C CNN
	1    8250 9350
	1    0    0    -1  
$EndComp
Text Notes 8200 9750 0    50   ~ 0
Fan\nPower
Wire Wire Line
	7500 9350 8050 9350
Text Label 7550 9350 0    50   ~ 0
FAN_POWER
Wire Notes Line
	2350 5450 7550 5450
Wire Notes Line
	7550 5450 7550 7850
Wire Notes Line
	7550 7850 2350 7850
Wire Notes Line
	2350 7850 2350 5450
Text Notes 2450 7800 0    55   ~ 11
Local Temperature Control
Wire Notes Line
	1350 8600 8700 8600
Wire Notes Line
	8700 8600 8700 10200
Wire Notes Line
	8700 10200 1350 10200
Wire Notes Line
	1350 10200 1350 8600
Text Notes 1450 10100 0    55   ~ 11
Interface Connectors
$Comp
L Device:LED D3
U 1 1 5BD0D89C
P 11000 9000
F 0 "D3" V 11038 8883 50  0000 R CNN
F 1 "LED" V 10947 8883 50  0000 R CNN
F 2 "LED_0603" H 11000 9000 50  0001 C CNN
F 3 "~" H 11000 9000 50  0001 C CNN
	1    11000 9000
	0    -1   -1   0   
$EndComp
$Comp
L Device:R R33
U 1 1 5BD0DCED
P 11000 8600
F 0 "R33" H 11070 8646 50  0000 L CNN
F 1 "510" H 11070 8555 50  0000 L CNN
F 2 "R_0603" V 10930 8600 50  0001 C CNN
F 3 "~" H 11000 8600 50  0001 C CNN
	1    11000 8600
	1    0    0    -1  
$EndComp
Wire Wire Line
	11000 8850 11000 8750
Wire Wire Line
	11000 8450 11000 8350
Wire Wire Line
	11000 9150 11000 9350
$Comp
L power:GND #PWR032
U 1 1 5BD3704A
P 11000 9350
F 0 "#PWR032" H 11000 9100 50  0001 C CNN
F 1 "GND" H 11005 9177 50  0000 C CNN
F 2 "" H 11000 9350 50  0001 C CNN
F 3 "" H 11000 9350 50  0001 C CNN
	1    11000 9350
	1    0    0    -1  
$EndComp
$Comp
L Device:LED D2
U 1 1 5BD374D9
P 10400 9000
F 0 "D2" V 10438 8883 50  0000 R CNN
F 1 "LED" V 10347 8883 50  0000 R CNN
F 2 "LED_0603" H 10400 9000 50  0001 C CNN
F 3 "~" H 10400 9000 50  0001 C CNN
	1    10400 9000
	0    -1   -1   0   
$EndComp
$Comp
L Device:R R32
U 1 1 5BD374DF
P 10400 8600
F 0 "R32" H 10470 8646 50  0000 L CNN
F 1 "510" H 10470 8555 50  0000 L CNN
F 2 "R_0603" V 10330 8600 50  0001 C CNN
F 3 "~" H 10400 8600 50  0001 C CNN
	1    10400 8600
	1    0    0    -1  
$EndComp
Wire Wire Line
	10400 8850 10400 8750
Wire Wire Line
	10400 9150 10400 9300
Wire Wire Line
	10400 9300 10050 9300
Wire Wire Line
	10400 8450 10400 8350
Wire Wire Line
	10400 8350 10050 8350
Text Label 10050 8350 0    50   ~ 0
RELAY+
Text Label 10050 9300 0    50   ~ 0
RELAY-
$Comp
L Device:LED D4
U 1 1 5BD61A66
P 11650 9000
F 0 "D4" V 11688 8883 50  0000 R CNN
F 1 "LED" V 11597 8883 50  0000 R CNN
F 2 "LED_0603" H 11650 9000 50  0001 C CNN
F 3 "~" H 11650 9000 50  0001 C CNN
	1    11650 9000
	0    -1   -1   0   
$EndComp
$Comp
L Device:R R35
U 1 1 5BD61A6C
P 11650 8600
F 0 "R35" H 11720 8646 50  0000 L CNN
F 1 "510" H 11720 8555 50  0000 L CNN
F 2 "R_0603" V 11580 8600 50  0001 C CNN
F 3 "~" H 11650 8600 50  0001 C CNN
	1    11650 8600
	1    0    0    -1  
$EndComp
Wire Wire Line
	11650 8850 11650 8750
Wire Wire Line
	11650 8450 11650 8350
$Comp
L Device:LED D5
U 1 1 5BD70208
P 12250 9000
F 0 "D5" V 12288 8883 50  0000 R CNN
F 1 "LED" V 12197 8883 50  0000 R CNN
F 2 "LED_0603" H 12250 9000 50  0001 C CNN
F 3 "~" H 12250 9000 50  0001 C CNN
	1    12250 9000
	0    -1   -1   0   
$EndComp
$Comp
L Device:R R36
U 1 1 5BD7020E
P 12250 8600
F 0 "R36" H 12320 8646 50  0000 L CNN
F 1 "510" H 12320 8555 50  0000 L CNN
F 2 "R_0603" V 12180 8600 50  0001 C CNN
F 3 "~" H 12250 8600 50  0001 C CNN
	1    12250 8600
	1    0    0    -1  
$EndComp
Wire Wire Line
	12250 8850 12250 8750
Wire Wire Line
	12250 8450 12250 8350
$Comp
L power:+5V #PWR033
U 1 1 5BD7EFC2
P 11650 8350
F 0 "#PWR033" H 11650 8200 50  0001 C CNN
F 1 "+5V" H 11665 8523 50  0000 C CNN
F 2 "" H 11650 8350 50  0001 C CNN
F 3 "" H 11650 8350 50  0001 C CNN
	1    11650 8350
	1    0    0    -1  
$EndComp
Wire Wire Line
	11650 9150 11650 9250
Wire Wire Line
	11650 9250 11250 9250
Text Label 11250 9250 0    50   ~ 0
RELAY-
$Comp
L Device:R R34
U 1 1 5BDBB41A
P 6950 6550
F 0 "R34" V 6743 6550 50  0000 C CNN
F 1 "0" V 6834 6550 50  0000 C CNN
F 2 "R_0603" V 6880 6550 50  0001 C CNN
F 3 "~" H 6950 6550 50  0001 C CNN
	1    6950 6550
	0    1    1    0   
$EndComp
Wire Wire Line
	7100 6550 7500 6550
Wire Wire Line
	11000 8350 11650 8350
Connection ~ 11650 8350
Wire Notes Line
	12650 8000 12650 9600
Wire Notes Line
	12650 9600 9650 9600
Wire Notes Line
	9650 9600 9650 8000
Wire Notes Line
	9650 8000 12650 8000
Text Notes 9700 9550 0    55   ~ 11
Control LEDs
Text Notes 10050 9050 0    50   ~ 0
Relay\nColsed
Text Notes 10700 8900 0    50   ~ 0
Power\n(5V)
Text Notes 11200 8900 0    50   ~ 0
Pwr Switch\nOn
Text Notes 11900 8900 0    50   ~ 0
Power\nDropped
$Comp
L Device:C C6
U 1 1 5B9E1A88
P 2650 5900
F 0 "C6" H 2765 5946 50  0000 L CNN
F 1 "1uF" H 2765 5855 50  0000 L CNN
F 2 "C_0603" H 2688 5750 50  0001 C CNN
F 3 "~" H 2650 5900 50  0001 C CNN
	1    2650 5900
	1    0    0    -1  
$EndComp
$Comp
L power:+5V #PWR034
U 1 1 5B9E1CFC
P 2650 5750
F 0 "#PWR034" H 2650 5600 50  0001 C CNN
F 1 "+5V" H 2665 5923 50  0000 C CNN
F 2 "" H 2650 5750 50  0001 C CNN
F 3 "" H 2650 5750 50  0001 C CNN
	1    2650 5750
	1    0    0    -1  
$EndComp
$Comp
L power:GND #PWR035
U 1 1 5B9E1D99
P 2650 6050
F 0 "#PWR035" H 2650 5800 50  0001 C CNN
F 1 "GND" H 2655 5877 50  0000 C CNN
F 2 "" H 2650 6050 50  0001 C CNN
F 3 "" H 2650 6050 50  0001 C CNN
	1    2650 6050
	1    0    0    -1  
$EndComp
Wire Wire Line
	1800 1400 1800 1300
$Comp
L Graphic:Logo_Open_Hardware_Small #LOGO1
U 1 1 5BA88F91
P 14500 9300
F 0 "#LOGO1" H 14500 9575 50  0001 C CNN
F 1 "Logo_Open_Hardware_Small" H 14500 9075 50  0001 C CNN
F 2 "" H 14500 9300 50  0001 C CNN
F 3 "~" H 14500 9300 50  0001 C CNN
	1    14500 9300
	1    0    0    -1  
$EndComp
Text Notes 13900 9650 0    100  ~ 20
CC BY-SA 4.0
$Comp
L Timer:NE555 U1
U 1 1 5C3949DA
P 5800 3900
F 0 "U1" H 6050 4400 50  0000 C CNN
F 1 "NE555" H 6050 4300 50  0000 C CNN
F 2 "SOIC-8_3.9x4.9mm_P1.27mm" H 5800 3900 50  0001 C CNN
F 3 "http://www.ti.com/lit/ds/symlink/ne555.pdf" H 5800 3900 50  0001 C CNN
	1    5800 3900
	1    0    0    -1  
$EndComp
Wire Wire Line
	6300 3700 7400 3700
Wire Wire Line
	5300 4100 4950 4100
Wire Wire Line
	4950 4100 4950 3450
Connection ~ 4950 4100
Wire Wire Line
	5800 4300 5800 4500
Wire Wire Line
	5800 4500 4950 4500
Wire Wire Line
	4950 4500 4950 4400
Wire Wire Line
	6300 4100 6300 4500
Wire Wire Line
	6300 4500 5800 4500
Connection ~ 5800 4500
Wire Wire Line
	5800 3500 5800 3100
Wire Wire Line
	5300 3700 4500 3700
Wire Wire Line
	4500 3700 4500 3600
Wire Wire Line
	4200 3650 4200 3700
Wire Wire Line
	4200 3700 4500 3700
Connection ~ 4500 3700
Wire Wire Line
	3900 3700 4200 3700
Connection ~ 4200 3700
Wire Wire Line
	4500 3100 4950 3100
Wire Wire Line
	4500 3100 4500 3300
Connection ~ 5800 3100
Wire Wire Line
	5800 3100 5800 3050
Wire Wire Line
	4200 3100 4500 3100
Wire Wire Line
	4200 3100 4200 3350
Connection ~ 4500 3100
$Comp
L Device:R R4
U 1 1 5C4990AB
P 4950 3300
F 0 "R4" H 5020 3346 50  0000 L CNN
F 1 "0" H 5020 3255 50  0000 L CNN
F 2 "R_0603" V 4880 3300 50  0001 C CNN
F 3 "~" H 4950 3300 50  0001 C CNN
	1    4950 3300
	1    0    0    -1  
$EndComp
Wire Wire Line
	4950 3150 4950 3100
Connection ~ 4950 3100
Wire Wire Line
	4950 3100 5800 3100
Wire Wire Line
	6550 3250 6550 3100
Wire Wire Line
	6550 3100 5800 3100
Wire Wire Line
	6550 3550 6550 4500
Wire Wire Line
	6550 4500 6300 4500
Connection ~ 6300 4500
$Comp
L Misc:MCP9509 U4
U 1 1 5C3A7E4A
P 6250 6550
F 0 "U4" H 6350 6977 55  0000 C CNN
F 1 "MCP9509" H 6350 6878 55  0000 C CNN
F 2 "SOT-23-5" H 6250 6550 55  0001 C CNN
F 3 "" H 6250 6550 55  0001 C CNN
	1    6250 6550
	1    0    0    -1  
$EndComp
$Comp
L Misc:MCP9509 U3
U 1 1 5C3A8115
P 3450 6550
F 0 "U3" H 3550 6977 55  0000 C CNN
F 1 "MCP9509" H 3550 6878 55  0000 C CNN
F 2 "SOT-23-5" H 3450 6550 55  0001 C CNN
F 3 "" H 3450 6550 55  0001 C CNN
	1    3450 6550
	1    0    0    -1  
$EndComp
Wire Wire Line
	3050 3700 3600 3700
Wire Wire Line
	1850 3700 3050 3700
Connection ~ 3050 3700
$Comp
L Misc:HLK-5M05 U2
U 1 1 5C4B3E5C
P 2750 1400
F 0 "U2" H 2750 1765 50  0000 C CNN
F 1 "HLK-5M05" H 2750 1674 50  0000 C CNN
F 2 "HLK-5Mxx" H 2750 1400 50  0001 C CNN
F 3 "" H 2750 1400 50  0001 C CNN
	1    2750 1400
	1    0    0    -1  
$EndComp
$Comp
L Device:R R3
U 1 1 5C4B40DB
P 3400 1550
F 0 "R3" H 3250 1500 50  0000 L CNN
F 1 "R" H 3250 1400 50  0000 L CNN
F 2 "R_0603" V 3330 1550 50  0001 C CNN
F 3 "~" H 3400 1550 50  0001 C CNN
	1    3400 1550
	1    0    0    -1  
$EndComp
Wire Wire Line
	3400 1400 3400 1300
Wire Wire Line
	3400 1700 3400 1850
$Comp
L power:+3.3V #PWR05
U 1 1 5C4CD217
P 1500 9300
F 0 "#PWR05" H 1500 9150 50  0001 C CNN
F 1 "+3.3V" H 1515 9473 50  0000 C CNN
F 2 "" H 1500 9300 50  0001 C CNN
F 3 "" H 1500 9300 50  0001 C CNN
	1    1500 9300
	1    0    0    -1  
$EndComp
$Comp
L power:+3.3V #PWR010
U 1 1 5C4CD3DC
P 13950 1200
F 0 "#PWR010" H 13950 1050 50  0001 C CNN
F 1 "+3.3V" H 13965 1373 50  0000 C CNN
F 2 "" H 13950 1200 50  0001 C CNN
F 3 "" H 13950 1200 50  0001 C CNN
	1    13950 1200
	1    0    0    -1  
$EndComp
Wire Wire Line
	1500 9300 2100 9300
Wire Wire Line
	12250 8350 11900 8350
Text Label 11900 8350 0    50   ~ 0
DROP_EN
Wire Wire Line
	12250 9350 11000 9350
Wire Wire Line
	12250 9150 12250 9350
Connection ~ 11000 9350
Text Label 6900 3700 0    50   ~ 0
DROP_EN
Wire Wire Line
	6300 3900 6900 3900
Wire Wire Line
	6900 3900 6900 4550
Wire Wire Line
	6900 4550 7050 4550
Text Label 7150 4550 0    50   ~ 0
DROP_FB
$Comp
L Device:R R5
U 1 1 5C53F1E1
P 7050 4300
F 0 "R5" H 7120 4346 50  0000 L CNN
F 1 "4.7K" H 7120 4255 50  0000 L CNN
F 2 "R_0603" V 6980 4300 50  0001 C CNN
F 3 "~" H 7050 4300 50  0001 C CNN
	1    7050 4300
	1    0    0    -1  
$EndComp
Wire Wire Line
	7050 4450 7050 4550
Connection ~ 7050 4550
Wire Wire Line
	7050 4550 7550 4550
Wire Wire Line
	7050 4150 7050 4050
$Comp
L power:+3.3V #PWR08
U 1 1 5C55873C
P 7050 4050
F 0 "#PWR08" H 7050 3900 50  0001 C CNN
F 1 "+3.3V" H 7065 4223 50  0000 C CNN
F 2 "" H 7050 4050 50  0001 C CNN
F 3 "" H 7050 4050 50  0001 C CNN
	1    7050 4050
	1    0    0    -1  
$EndComp
Wire Wire Line
	2100 9400 1650 9400
Text Label 1700 9400 0    50   ~ 0
DROP_FB
Wire Wire Line
	6050 9550 6750 9550
$Comp
L Device:C C8
U 1 1 5C5A78E2
P 6050 9700
F 0 "C8" H 6165 9746 50  0000 L CNN
F 1 "10nF" H 6150 9600 50  0000 L CNN
F 2 "C_0603_1608Metric" H 6088 9550 50  0001 C CNN
F 3 "~" H 6050 9700 50  0001 C CNN
	1    6050 9700
	1    0    0    -1  
$EndComp
Wire Wire Line
	5750 9550 5750 9450
Wire Wire Line
	5750 9450 6750 9450
Wire Wire Line
	5750 9850 5750 9950
Wire Wire Line
	5750 9950 6050 9950
Wire Wire Line
	6050 9950 6050 9850
Wire Wire Line
	6050 9950 6650 9950
Connection ~ 6050 9950
Connection ~ 6650 9950
Wire Wire Line
	6650 9950 6650 10000
Wire Wire Line
	5300 3900 4500 3900
Wire Wire Line
	4500 3900 4500 4100
$Comp
L Device:C C2
U 1 1 5C603F52
P 4500 4250
F 0 "C2" H 4615 4296 50  0000 L CNN
F 1 "10n" H 4615 4205 50  0000 L CNN
F 2 "C_0603" H 4538 4100 50  0001 C CNN
F 3 "~" H 4500 4250 50  0001 C CNN
	1    4500 4250
	1    0    0    -1  
$EndComp
Wire Wire Line
	4500 4400 4500 4500
Wire Wire Line
	4500 4500 4950 4500
Connection ~ 4950 4500
Wire Wire Line
	9350 3650 10000 3650
Text Label 9450 3650 0    50   ~ 0
RELAY_CTRL
$Comp
L power:+3.3V #PWR011
U 1 1 5C61F3B6
P 13950 2400
F 0 "#PWR011" H 13950 2250 50  0001 C CNN
F 1 "+3.3V" H 13965 2573 50  0000 C CNN
F 2 "" H 13950 2400 50  0001 C CNN
F 3 "" H 13950 2400 50  0001 C CNN
	1    13950 2400
	1    0    0    -1  
$EndComp
$Comp
L power:+3.3V #PWR012
U 1 1 5C61F441
P 13950 3600
F 0 "#PWR012" H 13950 3450 50  0001 C CNN
F 1 "+3.3V" H 13965 3773 50  0000 C CNN
F 2 "" H 13950 3600 50  0001 C CNN
F 3 "" H 13950 3600 50  0001 C CNN
	1    13950 3600
	1    0    0    -1  
$EndComp
$Comp
L power:+3.3V #PWR09
U 1 1 5C61F50D
P 13550 4600
F 0 "#PWR09" H 13550 4450 50  0001 C CNN
F 1 "+3.3V" H 13565 4773 50  0000 C CNN
F 2 "" H 13550 4600 50  0001 C CNN
F 3 "" H 13550 4600 50  0001 C CNN
	1    13550 4600
	1    0    0    -1  
$EndComp
Wire Notes Line
	900  2800 8600 2800
Wire Notes Line
	8600 2800 8600 4800
Wire Notes Line
	8600 4800 900  4800
Wire Notes Line
	900  4800 900  2800
Text Notes 1100 4700 0    55   ~ 11
Power Drop
$Comp
L Device:C C7
U 1 1 5C63D16B
P 5750 9700
F 0 "C7" H 5600 9600 50  0000 L CNN
F 1 "10nF" H 5550 9500 50  0000 L CNN
F 2 "C_0603_1608Metric" H 5788 9550 50  0001 C CNN
F 3 "~" H 5750 9700 50  0001 C CNN
	1    5750 9700
	1    0    0    -1  
$EndComp
$EndSCHEMATC
